sim/diary/nested_wave.vcd
$date
	Thu Jul 02 19:55:10 2026
$end
$version
	ModelSim Version 10.6e
$end
$timescale
	1ps
$end

$scope module tb_nested_check $end

$scope module u_soc_top $end
$var wire 1 ! core_bus_we $end
$var wire 32 " core_bus_addr [31:0] $end
$var wire 32 # core_bus_wdata [31:0] $end
$var wire 1 $ bus_ram_we $end

$scope module u_core $end
$var wire 1 % if_instr_i [31] $end
$var wire 1 & if_instr_i [30] $end
$var wire 1 ' if_instr_i [29] $end
$var wire 1 ( if_instr_i [28] $end
$var wire 1 ) if_instr_i [27] $end
$var wire 1 * if_instr_i [26] $end
$var wire 1 + if_instr_i [25] $end
$var wire 1 , if_instr_i [24] $end
$var wire 1 - if_instr_i [23] $end
$var wire 1 . if_instr_i [22] $end
$var wire 1 / if_instr_i [21] $end
$var wire 1 0 if_instr_i [20] $end
$var wire 1 1 if_instr_i [19] $end
$var wire 1 2 if_instr_i [18] $end
$var wire 1 3 if_instr_i [17] $end
$var wire 1 4 if_instr_i [16] $end
$var wire 1 5 if_instr_i [15] $end
$var wire 1 6 if_instr_i [14] $end
$var wire 1 7 if_instr_i [13] $end
$var wire 1 8 if_instr_i [12] $end
$var wire 1 9 if_instr_i [11] $end
$var wire 1 : if_instr_i [10] $end
$var wire 1 ; if_instr_i [9] $end
$var wire 1 < if_instr_i [8] $end
$var wire 1 = if_instr_i [7] $end
$var wire 1 > if_instr_i [6] $end
$var wire 1 ? if_instr_i [5] $end
$var wire 1 @ if_instr_i [4] $end
$var wire 1 A if_instr_i [3] $end
$var wire 1 B if_instr_i [2] $end
$var wire 1 C if_instr_i [1] $end
$var wire 1 D if_instr_i [0] $end
$var wire 32 E if_pc [31:0] $end
$var wire 32 F if_id_pc [31:0] $end
$var wire 32 G if_id_instr [31:0] $end
$var wire 32 H id_ex_pc [31:0] $end
$var wire 1 I id_ex_branch $end
$var wire 1 J id_ex_jump $end
$var wire 1 K id_ex_mret $end
$var wire 1 L ex_branch_taken $end
$var wire 1 M ex_jump_taken $end
$var wire 2 N forwardA [1:0] $end
$var wire 2 O forwardB [1:0] $end
$var wire 1 P flush_if $end
$var wire 1 Q flush_id $end
$var wire 1 R interrupt_taken_pipe $end
$var wire 4 S bank_ptr [3:0] $end
$var wire 1 T shadow_save $end
$var wire 1 U shadow_restore $end

$scope module u_ifu_top $end

$scope begin gen_pc_direct $end
$upscope $end
$upscope $end

$scope module u_id_top $end

$scope module u_regfile $end
$upscope $end
$upscope $end
$upscope $end

$scope begin gen_inst_rom $end

$scope module u_inst_rom $end
$upscope $end
$upscope $end

$scope module u_data_ram $end
$var wire 1 $ we_i $end
$var wire 1 V addr_i [31] $end
$var wire 1 W addr_i [30] $end
$var wire 1 X addr_i [29] $end
$var wire 1 Y addr_i [28] $end
$var wire 1 Z addr_i [27] $end
$var wire 1 [ addr_i [26] $end
$var wire 1 \ addr_i [25] $end
$var wire 1 ] addr_i [24] $end
$var wire 1 ^ addr_i [23] $end
$var wire 1 _ addr_i [22] $end
$var wire 1 ` addr_i [21] $end
$var wire 1 a addr_i [20] $end
$var wire 1 b addr_i [19] $end
$var wire 1 c addr_i [18] $end
$var wire 1 d addr_i [17] $end
$var wire 1 e addr_i [16] $end
$var wire 1 f addr_i [15] $end
$var wire 1 g addr_i [14] $end
$var wire 1 h addr_i [13] $end
$var wire 1 i addr_i [12] $end
$var wire 1 j addr_i [11] $end
$var wire 1 k addr_i [10] $end
$var wire 1 l addr_i [9] $end
$var wire 1 m addr_i [8] $end
$var wire 1 n addr_i [7] $end
$var wire 1 o addr_i [6] $end
$var wire 1 p addr_i [5] $end
$var wire 1 q addr_i [4] $end
$var wire 1 r addr_i [3] $end
$var wire 1 s addr_i [2] $end
$var wire 1 t addr_i [1] $end
$var wire 1 u addr_i [0] $end
$var wire 1 v wdata_i [31] $end
$var wire 1 w wdata_i [30] $end
$var wire 1 x wdata_i [29] $end
$var wire 1 y wdata_i [28] $end
$var wire 1 z wdata_i [27] $end
$var wire 1 { wdata_i [26] $end
$var wire 1 | wdata_i [25] $end
$var wire 1 } wdata_i [24] $end
$var wire 1 ~ wdata_i [23] $end
$var wire 1 !! wdata_i [22] $end
$var wire 1 "! wdata_i [21] $end
$var wire 1 #! wdata_i [20] $end
$var wire 1 $! wdata_i [19] $end
$var wire 1 %! wdata_i [18] $end
$var wire 1 &! wdata_i [17] $end
$var wire 1 '! wdata_i [16] $end
$var wire 1 (! wdata_i [15] $end
$var wire 1 )! wdata_i [14] $end
$var wire 1 *! wdata_i [13] $end
$var wire 1 +! wdata_i [12] $end
$var wire 1 ,! wdata_i [11] $end
$var wire 1 -! wdata_i [10] $end
$var wire 1 .! wdata_i [9] $end
$var wire 1 /! wdata_i [8] $end
$var wire 1 0! wdata_i [7] $end
$var wire 1 1! wdata_i [6] $end
$var wire 1 2! wdata_i [5] $end
$var wire 1 3! wdata_i [4] $end
$var wire 1 4! wdata_i [3] $end
$var wire 1 5! wdata_i [2] $end
$var wire 1 6! wdata_i [1] $end
$var wire 1 7! wdata_i [0] $end
$upscope $end
$upscope $end

$scope begin gen_mem_init $end
$upscope $end
$upscope $end
$enddefinitions $end
#0
$dumpvars
bx "
bx #
bx E
bx F
bx G
bx H
bx N
bx O
b0 S
x!
x$
xD
xC
xB
xA
x@
x?
x>
x=
x<
x;
x:
x9
x8
x7
x6
x5
x4
x3
x2
x1
x0
x/
x.
x-
x,
x+
x*
x)
x(
x'
x&
x%
xI
xJ
xK
xL
xM
xP
xQ
0R
0T
0U
xu
xt
xs
xr
xq
xp
xo
xn
xm
xl
xk
xj
xi
xh
xg
xf
xe
xd
xc
xb
xa
x`
x_
x^
x]
x\
x[
xZ
xY
xX
xW
xV
x7!
x6!
x5!
x4!
x3!
x2!
x1!
x0!
x/!
x.!
x-!
x,!
x+!
x*!
x)!
x(!
x'!
x&!
x%!
x$!
x#!
x"!
x!!
x~
x}
x|
x{
xz
xy
xx
xw
xv
$end
#2500
0J
0K
b0 #
1D
1C
0B
0A
1@
0?
0>
0=
1<
0;
0:
09
08
07
06
05
04
03
02
01
00
0/
0.
0-
0,
0+
0*
0)
0(
0'
1&
0%
0!
0$
0M
07!
06!
05!
04!
03!
02!
01!
00!
0/!
0.!
0-!
0,!
0+!
0*!
0)!
0(!
0'!
0&!
0%!
0$!
0#!
0"!
0!!
0~
0}
0|
0{
0z
0y
0x
0w
0v
0I
b0 "
b0 H
b0 G
b0 F
b0 E
0u
0t
0s
0r
0q
0p
0o
0n
0m
0l
0k
0j
0i
0h
0g
0f
0e
0d
0c
0b
0a
0`
0_
0^
0]
0\
0[
0Z
0Y
0X
0W
0V
0L
b0 O
b0 N
0P
0Q
#102500
0@
1?
0<
17
1(
0&
b1000000000000000000000100010011 G
b100 E
#107500
1;
b1000 E
b10000000000000010000000100011 G
b100 F
#112500
0;
1:
b10000000000 "
b1100 E
b10000000000000010001000100011 G
b1000 F
b100 H
1k
#117500
1;
1!
1$
b100000000 "
b10000 E
b10000000000000010010000100011 G
b1100 F
b1000 H
1m
0k
#122500
0;
0:
19
b100000100 "
b10100 E
b10000000000000010011000100011 G
b10000 F
b1100 H
1s
#127500
09
1+
b100001000 "
b11000 E
b10000000000000010100000100011 G
b10100 F
b10000 H
0s
1r
#132500
1;
b100001100 "
b11100 E
b10010000000000010000000100011 G
b11000 F
b10100 H
1s
#137500
0;
1:
b100010000 "
b100000 E
b10010000000000010001000100011 G
b11100 F
b11000 H
0s
0r
1q
#142500
1;
19
1*
1)
0(
b100100000 "
b100100 E
b10010000000000010010000100011 G
b100000 F
b11100 H
0q
1p
#147500
1@
0?
1=
0:
09
07
10
0+
0*
0)
1'
b100100100 "
b101000 E
b1110000000000010111000100011 G
b100100 F
b100000 H
1s
#152500
1?
1>
0=
0;
18
15
13
1.
1(
b100101000 "
b101100 E
b100000000100000000001010010011 G
b101000 F
b100100 H
0s
1r
#157500
1B
0>
1=
1;
05
03
00
0.
0(
0'
b11111100 "
b110000 E
b110000010100101001000001110011 G
b101100 F
b101000 H
1s
1q
1o
1n
0m
#162500
0B
0?
08
15
13
1-
1)
1%
0!
0$
b1000000001 "
b110100 E
b1001010110111 G
b110000 F
b101100 H
1u
0s
0r
0q
0p
0o
0n
1l
b1 O
b1 N
#167500
b1000000001 #
1?
1>
0=
0;
18
1.
0-
0)
1(
1'
0%
17!
1.!
b10000000010 "
b111000 E
b10001000100000101000001010010011 G
b110100 F
b110000 H
0u
1t
0l
1k
b0 O
b0 N
#172500
b0 #
1=
1;
08
17
05
03
0.
07!
0.!
b1000000000000 "
b111100 E
b110000010000101001000001110011 G
b111000 F
b110100 H
0t
0k
1i
b1 N
#177500
0?
0>
16
15
13
1-
0(
0'
b1000000 E
b110000000000000010001011110011 G
b111100 F
b111000 H
b100010001000 "
1r
1n
1j
0i
#182500
1?
1>
0=
0;
18
07
06
0-
1(
1'
b1000100 E
b100000101110001010010011 G
b1000000 F
b111100 H
b0 N
#187500
1B
0>
1=
1;
05
03
0'
b0 "
b1001000 E
b110000000000101001000001110011 G
b1000100 F
b1000000 H
0r
0n
0j
b1 N
#192500
0B
0?
0=
1<
08
10
0(
b1100000001000 "
b1001100 E
b10000000000000001001010110111 G
b1001000 F
b1000100 H
1r
1j
1i
#197500
0@
1?
0<
1:
17
15
13
00
1/
1.
b1010000 E
b100000000001100010011 G
b1001100 F
b1001000 H
b0 N
#202500
0;
0:
19
b10000000000000001000000000000 "
b1010100 E
b11000101010011000100011 G
b1010000 F
b1001100 H
0r
0j
1Y
#207500
1B
1@
1=
1;
09
05
03
0/
0.
1(
b1 "
b1011000 E
b11000101010100000100011 G
b1010100 F
b1010000 H
1u
0i
0Y
b10 N
b1 O
#212500
b1 #
0B
0?
0=
1<
07
1-
1*
1)
0(
1!
1$
17!
b10000000000000001000000001100 "
b1011100 E
b10000000000000010001010110111 G
b1011000 F
b1010100 H
0$
0u
1s
1r
1i
1Y
b10 O
b0 N
#217500
0@
1?
0<
17
15
13
1/
1.
0-
0*
0)
b10000000000000001000000010000 "
b1100000 E
b1100100000000000001100010011 G
b1011100 F
b1011000 H
0s
0r
1q
b0 O
#222500
b0 #
1@
0?
1<
07
05
03
10
0/
0.
0!
07!
b10000000000000010000000000000 "
b1100100 E
b11000101010001000100011 G
b1100000 F
b1011100 H
0q
0i
1h
#227500
0@
1?
0<
0;
17
15
13
00
1/
1.
b11001000 "
b1101000 E
b100000000001100010011 G
b1100100 F
b1100000 H
1r
1o
1n
0h
0Y
b10 N
b1 O
#232500
b11001000 #
1@
0?
1<
1;
07
05
03
10
0/
0.
1!
1$
14!
11!
10!
b10000000000000010000000000100 "
b1101100 E
b11000101010000000100011 G
b1101000 F
b1100100 H
0$
1s
0r
0o
0n
1h
1Y
b0 O
b0 N
#237500
b0 #
0@
1?
0<
1:
17
15
13
00
1/
1.
0!
04!
01!
00!
b1 "
b1110000 E
b100000000001100010011 G
b1101100 F
b1101000 H
1u
0s
0h
0Y
b1 O
#242500
b1 #
0?
1=
0:
05
03
0/
0.
1-
1(
1!
1$
17!
b10000000000000010000000000000 "
b1110100 E
b11000101010011000100011 G
b1110000 F
b1101100 H
0$
0u
1h
1Y
b0 O
#247500
b0 #
1@
0=
1<
07
10
0-
0(
0!
07!
b1 "
b1111000 E
b10000100000000010001010000011 G
b1110100 F
b1110000 H
1u
0h
0Y
b1 O
#252500
b1 #
0<
0;
00
1!
1$
17!
b10000000000000010000000001100 "
b1111100 E
b100000000001100010011 G
b1111000 F
b1110100 H
0$
0u
1s
1r
1h
1Y
b0 O
#257500
b0 #
0@
1?
1>
1=
1;
19
17
16
15
13
1/
1.
1+
1*
1)
1(
1'
1&
1%
0!
07!
b100001000 "
b10000000 E
b10011 G
b1111100 F
b1111000 H
0s
1m
0h
0Y
#262500
0>
0=
1:
06
05
03
0/
0.
0(
0'
0&
0%
b1 "
b10000100 E
b11111110011000101110101011100011 G
b10000000 F
b1111100 H
1u
0r
0m
#267500
1B
1A
1>
0;
0:
09
07
0+
0*
0)
1I
b0 "
b10001000 E
b1110000000000010111000100011 G
b10000100 F
b10000000 H
0u
1L
b10 O
1P
1Q
#272500
b1 #
0B
0A
0?
0>
1=
1;
17
1-
1(
17!
0I
b11111111111111111111111111111111 "
b1110100 E
b10011 G
b0 F
b0 H
1u
1t
1s
1r
1q
1p
1o
1n
1m
1l
1k
1j
1i
1h
1g
1f
1e
1d
1c
1b
1a
1`
1_
1^
1]
1\
1[
1Z
1Y
1X
1W
1V
0L
b0 O
0P
0Q
#277500
b0 #
1@
0=
1<
07
10
0-
0(
07!
b0 "
b10000100000000010001010000011 G
b1110100 F
b1111000 E
0u
0t
0s
0r
0q
0p
0o
0n
0m
0l
0k
0j
0i
0h
0g
0f
0e
0d
0c
0b
0a
0`
0_
0^
0]
0\
0[
0Z
0Y
0X
0W
0V
#282500
0<
0;
00
b1111100 E
b100000000001100010011 G
b1111000 F
b1110100 H
#287500
0@
1?
1>
1=
1;
19
17
16
15
13
1/
1.
1+
1*
1)
1(
1'
1&
1%
b100001000 "
b10000000 E
b10011 G
b1111100 F
b1111000 H
1r
1m
#292500
0>
0=
1:
06
05
03
0/
0.
0(
0'
0&
0%
b1 "
b10000100 E
b11111110011000101110101011100011 G
b10000000 F
b1111100 H
1u
0r
0m
#297500
1B
1A
1>
0;
0:
09
07
0+
0*
0)
1I
b0 "
b10001000 E
b1110000000000010111000100011 G
b10000100 F
b10000000 H
0u
1L
b10 O
1P
1Q
#302500
b1 #
0B
0A
0?
0>
1=
1;
17
1-
1(
17!
0I
b11111111111111111111111111111111 "
b1110100 E
b10011 G
b0 F
b0 H
1u
1t
1s
1r
1q
1p
1o
1n
1m
1l
1k
1j
1i
1h
1g
1f
1e
1d
1c
1b
1a
1`
1_
1^
1]
1\
1[
1Z
1Y
1X
1W
1V
0L
b0 O
0P
0Q
#307500
b0 #
1@
0=
1<
07
10
0-
0(
07!
b0 "
b10000100000000010001010000011 G
b1110100 F
b1111000 E
0u
0t
0s
0r
0q
0p
0o
0n
0m
0l
0k
0j
0i
0h
0g
0f
0e
0d
0c
0b
0a
0`
0_
0^
0]
0\
0[
0Z
0Y
0X
0W
0V
#312500
0<
0;
00
b1111100 E
b100000000001100010011 G
b1111000 F
b1110100 H
#317500
0@
1?
1>
1=
1;
19
17
16
15
13
1/
1.
1+
1*
1)
1(
1'
1&
1%
b100001000 "
b10000000 E
b10011 G
b1111100 F
b1111000 H
1r
1m
#322500
0>
0=
1:
06
05
03
0/
0.
0(
0'
0&
0%
b1 "
b10000100 E
b11111110011000101110101011100011 G
b10000000 F
b1111100 H
1u
0r
0m
#327500
1B
1A
1>
0;
0:
09
07
0+
0*
0)
1I
b0 "
b10001000 E
b1110000000000010111000100011 G
b10000100 F
b10000000 H
0u
1L
b10 O
1P
1Q
#332500
b1 #
0B
0A
0?
0>
1=
1;
17
1-
1(
17!
0I
b11111111111111111111111111111111 "
b1110100 E
b10011 G
b0 F
b0 H
1u
1t
1s
1r
1q
1p
1o
1n
1m
1l
1k
1j
1i
1h
1g
1f
1e
1d
1c
1b
1a
1`
1_
1^
1]
1\
1[
1Z
1Y
1X
1W
1V
0L
b0 O
0P
0Q
#337500
b0 #
1@
0=
1<
07
10
0-
0(
07!
b0 "
b10000100000000010001010000011 G
b1110100 F
b1111000 E
0u
0t
0s
0r
0q
0p
0o
0n
0m
0l
0k
0j
0i
0h
0g
0f
0e
0d
0c
0b
0a
0`
0_
0^
0]
0\
0[
0Z
0Y
0X
0W
0V
#342500
0<
0;
00
b1111100 E
b100000000001100010011 G
b1111000 F
b1110100 H
#347500
0@
1?
1>
1=
1;
19
17
16
15
13
1/
1.
1+
1*
1)
1(
1'
1&
1%
b100001000 "
b10000000 E
b10011 G
b1111100 F
b1111000 H
1r
1m
#352500
0>
0=
1:
06
05
03
0/
0.
0(
0'
0&
0%
b1 "
b10000100 E
b11111110011000101110101011100011 G
b10000000 F
b1111100 H
1u
0r
0m
#357500
1B
1A
1>
0;
0:
09
07
0+
0*
0)
1I
b0 "
b10001000 E
b1110000000000010111000100011 G
b10000100 F
b10000000 H
0u
1L
b10 O
1P
1Q
#362500
b1 #
0B
0A
0?
0>
1=
1;
17
1-
1(
17!
0I
b11111111111111111111111111111111 "
b1110100 E
b10011 G
b0 F
b0 H
1u
1t
1s
1r
1q
1p
1o
1n
1m
1l
1k
1j
1i
1h
1g
1f
1e
1d
1c
1b
1a
1`
1_
1^
1]
1\
1[
1Z
1Y
1X
1W
1V
0L
b0 O
0P
0Q
#367500
b0 #
1@
0=
1<
07
10
0-
0(
07!
b0 "
b10000100000000010001010000011 G
b1110100 F
b1111000 E
0u
0t
0s
0r
0q
0p
0o
0n
0m
0l
0k
0j
0i
0h
0g
0f
0e
0d
0c
0b
0a
0`
0_
0^
0]
0\
0[
0Z
0Y
0X
0W
0V
#372500
0<
0;
00
b1111100 E
b100000000001100010011 G
b1111000 F
b1110100 H
#377500
0@
1?
1>
1=
1;
19
17
16
15
13
1/
1.
1+
1*
1)
1(
1'
1&
1%
b100001000 "
b10000000 E
b10011 G
b1111100 F
b1111000 H
1r
1m
#382500
0>
0=
1:
06
05
03
0/
0.
0(
0'
0&
0%
b1 "
b10000100 E
b11111110011000101110101011100011 G
b10000000 F
b1111100 H
1u
0r
0m
#387500
1B
1A
1>
0;
0:
09
07
0+
0*
0)
1I
b0 "
b10001000 E
b1110000000000010111000100011 G
b10000100 F
b10000000 H
0u
1L
b10 O
1P
1Q
#392500
b1 #
0B
0A
0?
0>
1=
1;
17
1-
1(
17!
0I
b11111111111111111111111111111111 "
b1110100 E
b10011 G
b0 F
b0 H
1u
1t
1s
1r
1q
1p
1o
1n
1m
1l
1k
1j
1i
1h
1g
1f
1e
1d
1c
1b
1a
1`
1_
1^
1]
1\
1[
1Z
1Y
1X
1W
1V
0L
b0 O
0P
0Q
#397500
b0 #
1@
0=
1<
07
10
0-
0(
07!
b0 "
b10000100000000010001010000011 G
b1110100 F
b1111000 E
0u
0t
0s
0r
0q
0p
0o
0n
0m
0l
0k
0j
0i
0h
0g
0f
0e
0d
0c
0b
0a
0`
0_
0^
0]
0\
0[
0Z
0Y
0X
0W
0V
#402500
0<
0;
00
b1111100 E
b100000000001100010011 G
b1111000 F
b1110100 H
#407500
0@
1?
1>
1=
1;
19
17
16
15
13
1/
1.
1+
1*
1)
1(
1'
1&
1%
b100001000 "
b10000000 E
b10011 G
b1111100 F
b1111000 H
1r
1m
#412500
0>
0=
1:
06
05
03
0/
0.
0(
0'
0&
0%
b1 "
b10000100 E
b11111110011000101110101011100011 G
b10000000 F
b1111100 H
1u
0r
0m
#417500
1B
1A
1>
0;
0:
09
07
0+
0*
0)
1I
b0 "
b10001000 E
b1110000000000010111000100011 G
b10000100 F
b10000000 H
0u
1L
b10 O
1P
1Q
#422500
b1 #
0B
0A
0?
0>
1=
1;
17
1-
1(
17!
0I
b11111111111111111111111111111111 "
b1110100 E
b10011 G
b0 F
b0 H
1u
1t
1s
1r
1q
1p
1o
1n
1m
1l
1k
1j
1i
1h
1g
1f
1e
1d
1c
1b
1a
1`
1_
1^
1]
1\
1[
1Z
1Y
1X
1W
1V
0L
b0 O
0P
0Q
#427500
b0 #
1@
0=
1<
07
10
0-
0(
07!
b0 "
b10000100000000010001010000011 G
b1110100 F
b1111000 E
0u
0t
0s
0r
0q
0p
0o
0n
0m
0l
0k
0j
0i
0h
0g
0f
0e
0d
0c
0b
0a
0`
0_
0^
0]
0\
0[
0Z
0Y
0X
0W
0V
#432500
0<
0;
00
b1111100 E
b100000000001100010011 G
b1111000 F
b1110100 H
#437500
0@
1?
1>
1=
1;
19
17
16
15
13
1/
1.
1+
1*
1)
1(
1'
1&
1%
b100001000 "
b10000000 E
b10011 G
b1111100 F
b1111000 H
1r
1m
#442500
0>
0=
1:
06
05
03
0/
0.
0(
0'
0&
0%
b1 "
b10000100 E
b11111110011000101110101011100011 G
b10000000 F
b1111100 H
1u
0r
0m
#447500
1B
1A
1>
0;
0:
09
07
0+
0*
0)
1I
b0 "
b10001000 E
b1110000000000010111000100011 G
b10000100 F
b10000000 H
0u
1L
b10 O
1P
1Q
#452500
b1 #
0B
0A
0?
0>
1=
1;
17
1-
1(
17!
0I
b11111111111111111111111111111111 "
b1110100 E
b10011 G
b0 F
b0 H
1u
1t
1s
1r
1q
1p
1o
1n
1m
1l
1k
1j
1i
1h
1g
1f
1e
1d
1c
1b
1a
1`
1_
1^
1]
1\
1[
1Z
1Y
1X
1W
1V
0L
b0 O
0P
0Q
#457500
b0 #
1@
0=
1<
07
10
0-
0(
07!
b0 "
b10000100000000010001010000011 G
b1110100 F
b1111000 E
0u
0t
0s
0r
0q
0p
0o
0n
0m
0l
0k
0j
0i
0h
0g
0f
0e
0d
0c
0b
0a
0`
0_
0^
0]
0\
0[
0Z
0Y
0X
0W
0V
#462500
0<
0;
00
b1111100 E
b100000000001100010011 G
b1111000 F
b1110100 H
#467500
0@
1?
1>
1=
1;
19
17
16
15
13
1/
1.
1+
1*
1)
1(
1'
1&
1%
b100001000 "
b10000000 E
b10011 G
b1111100 F
b1111000 H
1r
1m
#472500
0>
0=
1:
06
05
03
0/
0.
0(
0'
0&
0%
b1 "
b10000100 E
b11111110011000101110101011100011 G
b10000000 F
b1111100 H
1u
0r
0m
#477500
1B
1A
1>
0;
0:
09
07
0+
0*
0)
1I
b0 "
b10001000 E
b1110000000000010111000100011 G
b10000100 F
b10000000 H
0u
1L
b10 O
1P
1Q
#482500
b1 #
0B
0A
0?
0>
1=
1;
17
1-
1(
17!
0I
b11111111111111111111111111111111 "
b1110100 E
b10011 G
b0 F
b0 H
1u
1t
1s
1r
1q
1p
1o
1n
1m
1l
1k
1j
1i
1h
1g
1f
1e
1d
1c
1b
1a
1`
1_
1^
1]
1\
1[
1Z
1Y
1X
1W
1V
0L
b0 O
0P
0Q
#487500
b0 #
1@
0=
1<
07
10
0-
0(
07!
b0 "
b10000100000000010001010000011 G
b1110100 F
b1111000 E
0u
0t
0s
0r
0q
0p
0o
0n
0m
0l
0k
0j
0i
0h
0g
0f
0e
0d
0c
0b
0a
0`
0_
0^
0]
0\
0[
0Z
0Y
0X
0W
0V
#492500
0<
0;
00
b1111100 E
b100000000001100010011 G
b1111000 F
b1110100 H
#497500
0@
1?
1>
1=
1;
19
17
16
15
13
1/
1.
1+
1*
1)
1(
1'
1&
1%
b100001000 "
b10000000 E
b10011 G
b1111100 F
b1111000 H
1r
1m
#502500
1R
1T
1B
1A
0=
0;
09
18
14
12
11
10
0/
0.
0+
0*
0(
b1 S
b1 "
b1000001100 E
b11111110011000101110101011100011 G
b10000000 F
b1111100 H
1u
0r
0m
#507500
1-
1,
1+
1*
0)
0R
0T
b0 "
b0 H
b1000010000 E
b11101000000111111111000001101111 G
b1000001100 F
0u
#512500
1.
0-
1J
1M
1P
1Q
b1000001100 H
b1000010100 E
b11100111100111111111000001101111 G
b1000010000 F
#517500
0J
0B
0A
1@
1=
1;
1:
19
08
06
05
04
03
02
01
00
0.
0,
0+
0*
1(
0&
0M
0P
0Q
b10001100 E
b10011 G
b0 F
b0 H
#522500
0@
0>
0=
0;
0:
09
10
1.
1-
1,
1+
0'
0%
b10010000 E
b10110000000000000010111011110011 G
b10001100 F
#527500
1B
1@
1=
1;
07
13
12
11
1/
0,
1)
0(
1&
1%
b10010100 E
b10011110100000010000000100011 G
b10010000 F
b10001100 H
#532500
0B
0?
15
02
01
0.
0-
0+
0)
0&
0%
b10011000 E
b11001010111111100000001010110111 G
b10010100 F
b10010000 H
b1 O
#537500
b1010110 #
0@
1?
0=
0;
17
05
03
0/
1.
1(
1!
1$
16!
15!
13!
11!
b100100000 "
b10011100 E
b1100101000001010010011 G
b10011000 F
b10010100 H
1p
1m
b0 O
#542500
b0 #
1@
0?
1=
1;
07
0.
0(
0!
0$
06!
05!
03!
01!
b11001010111111100000000000000000 "
b10100000 E
b10000010100000010000000100011 G
b10011100 F
b10011000 H
0p
0m
1d
1c
1b
1a
1`
1_
1^
1\
1Z
1W
1V
b1 N
#547500
0@
1?
0=
1:
17
1.
1(
b10100100 E
b100000000001010010011 G
b10100000 F
b10011100 H
b11001010111111100000000000000011 "
1u
1t
b1 O
b0 N
#552500
b11001010111111100000000000000011 #
1@
1>
1=
0:
00
0.
1'
1!
17!
16!
1&!
1%!
1$!
1#!
1"!
1!!
1~
1|
1z
1w
1v
b100000000 "
b10101000 E
b10000010100000010011000100011 G
b10100100 F
b10100000 H
1$
0u
0t
1m
0d
0c
0b
0a
0`
0_
0^
0\
0Z
0W
0V
b0 O
#557500
b0 #
0?
0>
16
15
13
1-
0(
0'
0!
0$
07!
06!
0&!
0%!
0$!
0#!
0"!
0!!
0~
0|
0z
0w
0v
b1 "
b10101100 E
b110000000000000010001011110011 G
b10101000 F
b10100100 H
1u
0m
b1 O
#562500
b1 #
1?
1>
0=
0;
18
07
06
0-
1(
1'
1!
1$
17!
b100001100 "
b10110000 E
b100000101110001010010011 G
b10101100 F
b10101000 H
0u
1s
1r
1m
b0 O
#567500
b0 #
0?
0>
1;
1:
19
08
05
03
1-
1+
0(
0'
0!
0$
07!
b0 "
b10110100 E
b110000000000101001000001110011 G
b10110000 F
b10101100 H
0s
0r
0m
b1 N
#572500
13
12
11
10
1/
1.
1,
1*
1)
1(
1'
1&
1%
b1100010001000 "
b10111000 E
b10100000000000111000010011 G
b10110100 F
b10110000 H
1r
1n
1j
1i
#577500
0@
1?
1>
1=
18
00
0/
0.
0-
0,
b10111100 E
b11111111111111100000111000010011 G
b10111000 F
b10110100 H
b0 N
#582500
1R
1T
1B
1A
0=
0;
0:
09
17
16
15
14
10
0+
0*
0(
b10 S
b101000 "
b1000001100 E
b11111110000011100001111011100011 G
b10111100 F
b10111000 H
1p
0n
0j
0i
b1 N
#587500
1-
1,
1+
1*
0)
0R
0T
b0 "
b0 H
b1000010000 E
b11101000000111111111000001101111 G
b1000001100 F
0r
0p
b0 N
#592500
1.
0-
1J
1M
1P
1Q
b1000001100 H
b1000010100 E
b11100111100111111111000001101111 G
b1000010000 F
#597500
0J
0B
0A
1@
1=
1;
1:
19
08
06
05
04
03
02
01
00
0.
0,
0+
0*
1(
0&
0M
0P
0Q
b10001100 E
b10011 G
b0 F
b0 H
#602500
0@
0>
0=
0;
0:
09
10
1.
1-
1,
1+
0'
0%
b10010000 E
b10110000000000000010111011110011 G
b10001100 F
#607500
1B
1@
1=
1;
07
13
12
11
1/
0,
1)
0(
1&
1%
b10010100 E
b10011110100000010000000100011 G
b10010000 F
b10001100 H
#612500
0B
0?
15
02
01
0.
0-
0+
0)
0&
0%
b10011000 E
b11001010111111100000001010110111 G
b10010100 F
b10010000 H
b1 O
#617500
b1100110 #
0@
1?
0=
0;
17
05
03
0/
1.
1(
1!
1$
16!
15!
12!
11!
b100100000 "
b10011100 E
b1100101000001010010011 G
b10011000 F
b10010100 H
1p
1m
b0 O
#622500
b0 #
1@
0?
1=
1;
07
0.
0(
0!
0$
06!
05!
02!
01!
b11001010111111100000000000000000 "
b10100000 E
b10000010100000010000000100011 G
b10011100 F
b10011000 H
0p
0m
1d
1c
1b
1a
1`
1_
1^
1\
1Z
1W
1V
b1 N
#627500
0@
1?
0=
1:
17
1.
1(
b10100100 E
b100000000001010010011 G
b10100000 F
b10011100 H
b11001010111111100000000000000011 "
1u
1t
b1 O
b0 N
#632500
b11001010111111100000000000000011 #
1@
1>
1=
0:
00
0.
1'
1!
17!
16!
1&!
1%!
1$!
1#!
1"!
1!!
1~
1|
1z
1w
1v
b100000000 "
b10101000 E
b10000010100000010011000100011 G
b10100100 F
b10100000 H
1$
0u
0t
1m
0d
0c
0b
0a
0`
0_
0^
0\
0Z
0W
0V
b0 O
#637500
b0 #
0?
0>
16
15
13
1-
0(
0'
0!
0$
07!
06!
0&!
0%!
0$!
0#!
0"!
0!!
0~
0|
0z
0w
0v
b1 "
b10101100 E
b110000000000000010001011110011 G
b10101000 F
b10100100 H
1u
0m
b1 O
#642500
b1 #
1?
1>
0=
0;
18
07
06
0-
1(
1'
1!
1$
17!
b100001100 "
b10110000 E
b100000101110001010010011 G
b10101100 F
b10101000 H
0u
1s
1r
1m
b0 O
#647500
b0 #
0?
0>
1;
1:
19
08
05
03
1-
1+
0(
0'
0!
0$
07!
b0 "
b10110100 E
b110000000000101001000001110011 G
b10110000 F
b10101100 H
0s
0r
0m
b1 N
#652500
13
12
11
10
1/
1.
1,
1*
1)
1(
1'
1&
1%
b1100010001000 "
b10111000 E
b10100000000000111000010011 G
b10110100 F
b10110000 H
1r
1n
1j
1i
#657500
0@
1?
1>
1=
18
00
0/
0.
0-
0,
b10111100 E
b11111111111111100000111000010011 G
b10111000 F
b10110100 H
b0 N
#662500
0>
0=
09
08
17
03
02
01
0+
0*
0)
0'
0&
0%
b101000 "
b11000000 E
b11111110000011100001111011100011 G
b10111100 F
b10111000 H
1p
0n
0j
0i
b1 N
#667500
1@
1>
0;
0:
07
1/
1'
1I
b11000100 E
b10000000000000010011000100011 G
b11000000 F
b10111100 H
b100111 "
1u
1t
1s
0r
1L
1P
1Q
#672500
0?
0>
1;
1:
19
13
12
11
10
1.
1-
1,
1+
1*
1)
1&
1%
0I
b10111000 E
b10011 G
b0 F
b0 H
0L
b0 N
0P
0Q
#677500
0@
1?
1>
1=
18
00
0/
0.
0-
0,
b0 "
b11111111111111100000111000010011 G
b10111000 F
b10111100 E
0u
0t
0s
0p
#682500
0>
0=
09
08
17
03
02
01
0+
0*
0)
0'
0&
0%
b11000000 E
b11111110000011100001111011100011 G
b10111100 F
b10111000 H
