sim/transcript
# do run_cli_triple.do
# ../tb
# vsim -onfinish stop -c work.tb_nested_check -gSHADOW_BANKS=4 -gUSE_INST_ROM=1 
# Start time: 19:55:09 on Jul 02,2026
# ** Note: (vsim-3812) Design is being optimized...
# ** Warning: ../core/core_top.v(248): (vopt-2685) [TFMPC] - Too few port connections for 'u_ifu_top'.  Expected 15, found 14.
# ** Warning: ../core/core_top.v(248): (vopt-2718) [TFMPC] - Missing connection for port 'instr'.
# ** Warning: ../core/core_top.v(491): (vopt-2685) [TFMPC] - Too few port connections for 'u_mem_top'.  Expected 23, found 22.
# ** Warning: ../core/core_top.v(491): (vopt-2718) [TFMPC] - Missing connection for port 'mem_exception_o'.
# ** Warning: ../soc/top/soc_top.v(296): (vopt-2685) [TFMPC] - Too few port connections for 'u_gpio'.  Expected 15, found 11.
# ** Warning: ../soc/top/soc_top.v(296): (vopt-2718) [TFMPC] - Missing connection for port 'debug_gpio_if'.
# ** Warning: ../soc/top/soc_top.v(296): (vopt-2718) [TFMPC] - Missing connection for port 'debug_gpio_in'.
# ** Warning: ../soc/top/soc_top.v(296): (vopt-2718) [TFMPC] - Missing connection for port 'debug_gpio_oe'.
# ** Warning: ../soc/top/soc_top.v(296): (vopt-2718) [TFMPC] - Missing connection for port 'debug_gpio_out'.
# //  ModelSim SE-64 10.6e Jun 23 2018
# //
# //  Copyright 1991-2018 Mentor Graphics Corporation
# //  All Rights Reserved.
# //
# //  ModelSim SE-64 and its associated documentation contain trade
# //  secrets and commercial or financial information that are the property of
# //  Mentor Graphics Corporation and are privileged, confidential,
# //  and exempt from disclosure under the Freedom of Information Act,
# //  5 U.S.C. Section 552. Furthermore, this information
# //  is prohibited from disclosure under the Trade Secrets Act,
# //  18 U.S.C. Section 1905.
# //
# Loading work.tb_nested_check(fast)
# [103000] C0: PC=00000000 INSTR=40000113 IFID={pc=00000000 instr=00000000} IDEX={pc=00000000 br=0 jmp=0} EX={bt=0 jt=0} FWD={A=0 B=0} FLUSH={if=0 id=0}
# [108000] C1: PC=00000004 INSTR=10002023 IFID={pc=00000000 instr=40000113} IDEX={pc=00000000 br=0 jmp=0} EX={bt=0 jt=0} FWD={A=0 B=0} FLUSH={if=0 id=0}
# [113000] C2: PC=00000008 INSTR=10002223 IFID={pc=00000004 instr=10002023} IDEX={pc=00000000 br=0 jmp=0} EX={bt=0 jt=0} FWD={A=0 B=0} FLUSH={if=0 id=0}
# [118000] C3: PC=0000000c INSTR=10002423 IFID={pc=00000008 instr=10002223} IDEX={pc=00000004 br=0 jmp=0} EX={bt=0 jt=0} FWD={A=0 B=0} FLUSH={if=0 id=0}
# [123000] C4: RAM_WR addr=00000100 data=00000000 (mem[64])
# [123000] C4: CPU_WR busaddr=00000100 wdata=00000000 ram_we=1
# [123000] C4: PC=00000010 INSTR=10002623 IFID={pc=0000000c instr=10002423} IDEX={pc=00000008 br=0 jmp=0} EX={bt=0 jt=0} FWD={A=0 B=0} FLUSH={if=0 id=0}
# [128000] C5: PC=00000014 INSTR=10002823 IFID={pc=00000010 instr=10002623} IDEX={pc=0000000c br=0 jmp=0} EX={bt=0 jt=0} FWD={A=0 B=0} FLUSH={if=0 id=0}
# [128000] C5: CPU_WR busaddr=00000104 wdata=00000000 ram_we=1
# [128000] C5: RAM_WR addr=00000104 data=00000000 (mem[65])
# [133000] C6: RAM_WR addr=00000108 data=00000000 (mem[66])
# [133000] C6: CPU_WR busaddr=00000108 wdata=00000000 ram_we=1
# [133000] C6: PC=00000018 INSTR=12002023 IFID={pc=00000014 instr=10002823} IDEX={pc=00000010 br=0 jmp=0} EX={bt=0 jt=0} FWD={A=0 B=0} FLUSH={if=0 id=0}
# [138000] C7: PC=0000001c INSTR=12002223 IFID={pc=00000018 instr=12002023} IDEX={pc=00000014 br=0 jmp=0} EX={bt=0 jt=0} FWD={A=0 B=0} FLUSH={if=0 id=0}
# [138000] C7: CPU_WR busaddr=0000010c wdata=00000000 ram_we=1
# [138000] C7: RAM_WR addr=0000010c data=00000000 (mem[67])
# [143000] C8: RAM_WR addr=00000110 data=00000000 (mem[68])
# [143000] C8: CPU_WR busaddr=00000110 wdata=00000000 ram_we=1
# [143000] C8: PC=00000020 INSTR=12002423 IFID={pc=0000001c instr=12002223} IDEX={pc=00000018 br=0 jmp=0} EX={bt=0 jt=0} FWD={A=0 B=0} FLUSH={if=0 id=0}
# [148000] C9: PC=00000024 INSTR=0e002e23 IFID={pc=00000020 instr=12002423} IDEX={pc=0000001c br=0 jmp=0} EX={bt=0 jt=0} FWD={A=0 B=0} FLUSH={if=0 id=0}
# [148000] C9: CPU_WR busaddr=00000120 wdata=00000000 ram_we=1
# [148000] C9: RAM_WR addr=00000120 data=00000000 (mem[72])
# [153000] C10: RAM_WR addr=00000124 data=00000000 (mem[73])
# [153000] C10: CPU_WR busaddr=00000124 wdata=00000000 ram_we=1
# [153000] C10: PC=00000028 INSTR=20100293 IFID={pc=00000024 instr=0e002e23} IDEX={pc=00000020 br=0 jmp=0} EX={bt=0 jt=0} FWD={A=0 B=0} FLUSH={if=0 id=0}
# [158000] C11: PC=0000002c INSTR=30529073 IFID={pc=00000028 instr=20100293} IDEX={pc=00000024 br=0 jmp=0} EX={bt=0 jt=0} FWD={A=0 B=0} FLUSH={if=0 id=0}
# [158000] C11: CPU_WR busaddr=00000128 wdata=00000000 ram_we=1
# [158000] C11: RAM_WR addr=00000128 data=00000000 (mem[74])
# [163000] C12: RAM_WR addr=000000fc data=00000000 (mem[63])
# [163000] C12: CPU_WR busaddr=000000fc wdata=00000000 ram_we=1
# [163000] C12: PC=00000030 INSTR=000012b7 IFID={pc=0000002c instr=30529073} IDEX={pc=00000028 br=0 jmp=0} EX={bt=0 jt=0} FWD={A=0 B=0} FLUSH={if=0 id=0}
# [168000] C13: PC=00000034 INSTR=88828293 IFID={pc=00000030 instr=000012b7} IDEX={pc=0000002c br=0 jmp=0} EX={bt=0 jt=0} FWD={A=1 B=1} FLUSH={if=0 id=0}
# [173000] C14: PC=00000038 INSTR=30429073 IFID={pc=00000034 instr=88828293} IDEX={pc=00000030 br=0 jmp=0} EX={bt=0 jt=0} FWD={A=0 B=0} FLUSH={if=0 id=0}
# [178000] C15: PC=0000003c INSTR=300022f3 IFID={pc=00000038 instr=30429073} IDEX={pc=00000034 br=0 jmp=0} EX={bt=0 jt=0} FWD={A=1 B=0} FLUSH={if=0 id=0}
# [183000] C16: PC=00000040 INSTR=0082e293 IFID={pc=0000003c instr=300022f3} IDEX={pc=00000038 br=0 jmp=0} EX={bt=0 jt=0} FWD={A=1 B=0} FLUSH={if=0 id=0}
# [188000] C17: PC=00000044 INSTR=30029073 IFID={pc=00000040 instr=0082e293} IDEX={pc=0000003c br=0 jmp=0} EX={bt=0 jt=0} FWD={A=0 B=0} FLUSH={if=0 id=0}
# [193000] C18: PC=00000048 INSTR=100012b7 IFID={pc=00000044 instr=30029073} IDEX={pc=00000040 br=0 jmp=0} EX={bt=0 jt=0} FWD={A=1 B=0} FLUSH={if=0 id=0}
# [198000] C19: PC=0000004c INSTR=00100313 IFID={pc=00000048 instr=100012b7} IDEX={pc=00000044 br=0 jmp=0} EX={bt=0 jt=0} FWD={A=1 B=0} FLUSH={if=0 id=0}
# [203000] C20: PC=00000050 INSTR=0062a623 IFID={pc=0000004c instr=00100313} IDEX={pc=00000048 br=0 jmp=0} EX={bt=0 jt=0} FWD={A=0 B=0} FLUSH={if=0 id=0}
# [208000] C21: PC=00000054 INSTR=0062a823 IFID={pc=00000050 instr=0062a623} IDEX={pc=0000004c br=0 jmp=0} EX={bt=0 jt=0} FWD={A=0 B=0} FLUSH={if=0 id=0}
# [213000] C22: PC=00000058 INSTR=100022b7 IFID={pc=00000054 instr=0062a823} IDEX={pc=00000050 br=0 jmp=0} EX={bt=0 jt=0} FWD={A=2 B=1} FLUSH={if=0 id=0}
# [218000] C23: CPU_WR busaddr=1000100c wdata=00000001 ram_we=0
# [218000] C23: PC=0000005c INSTR=0c800313 IFID={pc=00000058 instr=100022b7} IDEX={pc=00000054 br=0 jmp=0} EX={bt=0 jt=0} FWD={A=0 B=2} FLUSH={if=0 id=0}
# [223000] C24: PC=00000060 INSTR=0062a223 IFID={pc=0000005c instr=0c800313} IDEX={pc=00000058 br=0 jmp=0} EX={bt=0 jt=0} FWD={A=0 B=0} FLUSH={if=0 id=0}
# [223000] C24: CPU_WR busaddr=10001010 wdata=00000001 ram_we=0
# [228000] C25: PC=00000064 INSTR=00100313 IFID={pc=00000060 instr=0062a223} IDEX={pc=0000005c br=0 jmp=0} EX={bt=0 jt=0} FWD={A=0 B=0} FLUSH={if=0 id=0}
# [233000] C26: PC=00000068 INSTR=0062a023 IFID={pc=00000064 instr=00100313} IDEX={pc=00000060 br=0 jmp=0} EX={bt=0 jt=0} FWD={A=2 B=1} FLUSH={if=0 id=0}
# [238000] C27: CPU_WR busaddr=10002004 wdata=000000c8 ram_we=0
# [238000] C27: PC=0000006c INSTR=00100313 IFID={pc=00000068 instr=0062a023} IDEX={pc=00000064 br=0 jmp=0} EX={bt=0 jt=0} FWD={A=0 B=0} FLUSH={if=0 id=0}
# [243000] C28: PC=00000070 INSTR=0062a623 IFID={pc=0000006c instr=00100313} IDEX={pc=00000068 br=0 jmp=0} EX={bt=0 jt=0} FWD={A=0 B=1} FLUSH={if=0 id=0}
# [248000] C29: CPU_WR busaddr=10002000 wdata=00000001 ram_we=0
# [248000] C29: PC=00000074 INSTR=10802283 IFID={pc=00000070 instr=0062a623} IDEX={pc=0000006c br=0 jmp=0} EX={bt=0 jt=0} FWD={A=0 B=0} FLUSH={if=0 id=0}
# [253000] C30: PC=00000078 INSTR=00100313 IFID={pc=00000074 instr=10802283} IDEX={pc=00000070 br=0 jmp=0} EX={bt=0 jt=0} FWD={A=0 B=1} FLUSH={if=0 id=0}
# [258000] C31: CPU_WR busaddr=1000200c wdata=00000001 ram_we=0
# [258000] C31: PC=0000007c INSTR=00000013 IFID={pc=00000078 instr=00100313} IDEX={pc=00000074 br=0 jmp=0} EX={bt=0 jt=0} FWD={A=0 B=0} FLUSH={if=0 id=0}
# [263000] C32: PC=00000080 INSTR=fe62eae3 IFID={pc=0000007c instr=00000013} IDEX={pc=00000078 br=0 jmp=0} EX={bt=0 jt=0} FWD={A=0 B=0} FLUSH={if=0 id=0}
# [268000] C33: PC=00000084 INSTR=0e002e23 IFID={pc=00000080 instr=fe62eae3} IDEX={pc=0000007c br=0 jmp=0} EX={bt=0 jt=0} FWD={A=0 B=0} FLUSH={if=0 id=0}
# [273000] C34: PC=00000088 INSTR=0000006f IFID={pc=00000084 instr=0e002e23} IDEX={pc=00000080 br=1 jmp=0} EX={bt=1 jt=0} FWD={A=0 B=2} FLUSH={if=1 id=1}
# [278000] C35: PC=00000074 INSTR=10802283 IFID={pc=00000000 instr=00000013} IDEX={pc=00000000 br=0 jmp=0} EX={bt=0 jt=0} FWD={A=0 B=0} FLUSH={if=0 id=0}
# [283000] C36: PC=00000078 INSTR=00100313 IFID={pc=00000074 instr=10802283} IDEX={pc=00000000 br=0 jmp=0} EX={bt=0 jt=0} FWD={A=0 B=0} FLUSH={if=0 id=0}
# [288000] C37: PC=0000007c INSTR=00000013 IFID={pc=00000078 instr=00100313} IDEX={pc=00000074 br=0 jmp=0} EX={bt=0 jt=0} FWD={A=0 B=0} FLUSH={if=0 id=0}
# [293000] C38: PC=00000080 INSTR=fe62eae3 IFID={pc=0000007c instr=00000013} IDEX={pc=00000078 br=0 jmp=0} EX={bt=0 jt=0} FWD={A=0 B=0} FLUSH={if=0 id=0}
# [298000] C39: PC=00000084 INSTR=0e002e23 IFID={pc=00000080 instr=fe62eae3} IDEX={pc=0000007c br=0 jmp=0} EX={bt=0 jt=0} FWD={A=0 B=0} FLUSH={if=0 id=0}
# [303000] C40: PC=00000088 INSTR=0000006f IFID={pc=00000084 instr=0e002e23} IDEX={pc=00000080 br=1 jmp=0} EX={bt=1 jt=0} FWD={A=0 B=2} FLUSH={if=1 id=1}
# [308000] C41: PC=00000074 INSTR=10802283 IFID={pc=00000000 instr=00000013} IDEX={pc=00000000 br=0 jmp=0} EX={bt=0 jt=0} FWD={A=0 B=0} FLUSH={if=0 id=0}
# [313000] C42: PC=00000078 INSTR=00100313 IFID={pc=00000074 instr=10802283} IDEX={pc=00000000 br=0 jmp=0} EX={bt=0 jt=0} FWD={A=0 B=0} FLUSH={if=0 id=0}
# [318000] C43: PC=0000007c INSTR=00000013 IFID={pc=00000078 instr=00100313} IDEX={pc=00000074 br=0 jmp=0} EX={bt=0 jt=0} FWD={A=0 B=0} FLUSH={if=0 id=0}
# [323000] C44: PC=00000080 INSTR=fe62eae3 IFID={pc=0000007c instr=00000013} IDEX={pc=00000078 br=0 jmp=0} EX={bt=0 jt=0} FWD={A=0 B=0} FLUSH={if=0 id=0}
# [328000] C45: PC=00000084 INSTR=0e002e23 IFID={pc=00000080 instr=fe62eae3} IDEX={pc=0000007c br=0 jmp=0} EX={bt=0 jt=0} FWD={A=0 B=0} FLUSH={if=0 id=0}
# [333000] C46: PC=00000088 INSTR=0000006f IFID={pc=00000084 instr=0e002e23} IDEX={pc=00000080 br=1 jmp=0} EX={bt=1 jt=0} FWD={A=0 B=2} FLUSH={if=1 id=1}
# [338000] C47: PC=00000074 INSTR=10802283 IFID={pc=00000000 instr=00000013} IDEX={pc=00000000 br=0 jmp=0} EX={bt=0 jt=0} FWD={A=0 B=0} FLUSH={if=0 id=0}
# [343000] C48: PC=00000078 INSTR=00100313 IFID={pc=00000074 instr=10802283} IDEX={pc=00000000 br=0 jmp=0} EX={bt=0 jt=0} FWD={A=0 B=0} FLUSH={if=0 id=0}
# [348000] C49: PC=0000007c INSTR=00000013 IFID={pc=00000078 instr=00100313} IDEX={pc=00000074 br=0 jmp=0} EX={bt=0 jt=0} FWD={A=0 B=0} FLUSH={if=0 id=0}
# [508000] C81: bank_ptr=1 save=1 restore=0
# [508000] C81: *** INTR TAKEN *** bank_ptr=1
# [508000] C81: PC=0000020c INSTR=e81ff06f IFID={pc=00000080 instr=fe62eae3} IDEX={pc=0000007c br=0 jmp=0} EX={bt=0 jt=0} FWD={A=0 B=0} FLUSH={if=0 id=0}
# [513000] C82: bank_ptr=1 save=0 restore=0
# [518000] C83: bank_ptr=1 save=0 restore=0
# [523000] C84: bank_ptr=1 save=0 restore=0
# [528000] C85: bank_ptr=1 save=0 restore=0
# [533000] C86: bank_ptr=1 save=0 restore=0
# [538000] C87: bank_ptr=1 save=0 restore=0
# [543000] C88: RAM_WR addr=00000120 data=00000056 (mem[72])
# [543000] C88: CPU_WR busaddr=00000120 wdata=00000056 ram_we=1
# [543000] C88: bank_ptr=1 save=0 restore=0
# [548000] C89: bank_ptr=1 save=0 restore=0
# [553000] C90: bank_ptr=1 save=0 restore=0
# [558000] C91: RAM_WR addr=00000100 data=cafe0003 (mem[64])
# [558000] C91: CPU_WR busaddr=00000100 wdata=cafe0003 ram_we=1
# [558000] C91: bank_ptr=1 save=0 restore=0
# [563000] C92: bank_ptr=1 save=0 restore=0
# [568000] C93: RAM_WR addr=0000010c data=00000001 (mem[67])
# [568000] C93: CPU_WR busaddr=0000010c wdata=00000001 ram_we=1
# [568000] C93: bank_ptr=1 save=0 restore=0
# [573000] C94: bank_ptr=1 save=0 restore=0
# [578000] C95: bank_ptr=1 save=0 restore=0
# [583000] C96: bank_ptr=1 save=0 restore=0
# [588000] C97: *** INTR TAKEN *** bank_ptr=2
# [588000] C97: PC=0000020c INSTR=e81ff06f IFID={pc=000000bc instr=fe0e1ee3} IDEX={pc=000000b8 br=0 jmp=0} EX={bt=0 jt=0} FWD={A=1 B=0} FLUSH={if=0 id=0}
# [588000] C97: bank_ptr=2 save=1 restore=0
# [593000] C98: bank_ptr=2 save=0 restore=0
# [598000] C99: bank_ptr=2 save=0 restore=0
# [603000] C100: bank_ptr=2 save=0 restore=0
# [608000] C101: bank_ptr=2 save=0 restore=0
# [613000] C102: bank_ptr=2 save=0 restore=0
# [618000] C103: bank_ptr=2 save=0 restore=0
# [623000] C104: RAM_WR addr=00000120 data=00000066 (mem[72])
# [623000] C104: CPU_WR busaddr=00000120 wdata=00000066 ram_we=1
# [623000] C104: bank_ptr=2 save=0 restore=0
# [628000] C105: bank_ptr=2 save=0 restore=0
# [633000] C106: bank_ptr=2 save=0 restore=0
# [638000] C107: RAM_WR addr=00000100 data=cafe0003 (mem[64])
# [638000] C107: CPU_WR busaddr=00000100 wdata=cafe0003 ram_we=1
# [638000] C107: bank_ptr=2 save=0 restore=0
# [643000] C108: bank_ptr=2 save=0 restore=0
# [648000] C109: RAM_WR addr=0000010c data=00000001 (mem[67])
# [648000] C109: CPU_WR busaddr=0000010c wdata=00000001 ram_we=1
# [648000] C109: bank_ptr=2 save=0 restore=0
# [653000] C110: bank_ptr=2 save=0 restore=0
# [658000] C111: bank_ptr=2 save=0 restore=0
# [663000] C112: bank_ptr=2 save=0 restore=0
# [668000] C113: bank_ptr=2 save=0 restore=0
# [673000] C114: bank_ptr=2 save=0 restore=0
# [678000] C115: bank_ptr=2 save=0 restore=0
# [683000] C116: bank_ptr=2 save=0 restore=0
# [688000] C117: bank_ptr=2 save=0 restore=0
# [693000] C118: bank_ptr=2 save=0 restore=0
# [698000] C119: bank_ptr=2 save=0 restore=0
# [703000] C120: bank_ptr=2 save=0 restore=0
# [708000] C121: bank_ptr=2 save=0 restore=0
# [713000] C122: bank_ptr=2 save=0 restore=0
# [718000] C123: bank_ptr=2 save=0 restore=0
# [723000] C124: bank_ptr=2 save=0 restore=0
# [728000] C125: bank_ptr=2 save=0 restore=0
# [733000] C126: bank_ptr=2 save=0 restore=0
# [738000] C127: bank_ptr=2 save=0 restore=0
# [743000] C128: bank_ptr=2 save=0 restore=0
# [748000] C129: bank_ptr=2 save=0 restore=0
# [753000] C130: bank_ptr=2 save=0 restore=0
# [758000] C131: bank_ptr=2 save=0 restore=0
# [763000] C132: bank_ptr=2 save=0 restore=0
# [768000] C133: bank_ptr=2 save=0 restore=0
# [773000] C134: bank_ptr=2 save=0 restore=0
# [778000] C135: bank_ptr=2 save=0 restore=0
# [783000] C136: bank_ptr=2 save=0 restore=0
# [788000] C137: bank_ptr=2 save=0 restore=0
# [793000] C138: bank_ptr=2 save=0 restore=0
# [798000] C139: bank_ptr=2 save=0 restore=0
# [803000] C140: bank_ptr=2 save=0 restore=0
# [808000] C141: bank_ptr=2 save=0 restore=0
# [813000] C142: bank_ptr=2 save=0 restore=0
# [818000] C143: bank_ptr=2 save=0 restore=0
# [823000] C144: bank_ptr=2 save=0 restore=0
# [828000] C145: bank_ptr=2 save=0 restore=0
# [833000] C146: bank_ptr=2 save=0 restore=0
# [838000] C147: bank_ptr=2 save=0 restore=0
# [843000] C148: bank_ptr=2 save=0 restore=0
# [848000] C149: bank_ptr=2 save=0 restore=0
# [853000] C150: bank_ptr=2 save=0 restore=0
# [858000] C151: bank_ptr=2 save=0 restore=0
# [863000] C152: bank_ptr=2 save=0 restore=0
# [868000] C153: bank_ptr=2 save=0 restore=0
# [873000] C154: bank_ptr=2 save=0 restore=0
# [878000] C155: bank_ptr=2 save=0 restore=0
# [883000] C156: bank_ptr=2 save=0 restore=0
# [888000] C157: bank_ptr=2 save=0 restore=0
# [893000] C158: bank_ptr=2 save=0 restore=0
# [898000] C159: bank_ptr=2 save=0 restore=0
# [903000] C160: bank_ptr=2 save=0 restore=0
# [908000] C161: bank_ptr=2 save=0 restore=0
# [913000] C162: bank_ptr=2 save=0 restore=0
# [918000] C163: bank_ptr=2 save=0 restore=0
# [923000] C164: bank_ptr=2 save=0 restore=0
# [928000] C165: bank_ptr=2 save=0 restore=0
# [933000] C166: bank_ptr=2 save=0 restore=0
# [938000] C167: bank_ptr=2 save=0 restore=0
# [943000] C168: bank_ptr=2 save=0 restore=0
# [948000] C169: bank_ptr=2 save=0 restore=0
# [953000] C170: bank_ptr=2 save=0 restore=0
# [958000] C171: bank_ptr=2 save=0 restore=0
# [963000] C172: bank_ptr=2 save=0 restore=0
# [968000] C173: bank_ptr=2 save=0 restore=0
# [973000] C174: bank_ptr=2 save=0 restore=0
# [978000] C175: bank_ptr=2 save=0 restore=0
# [983000] C176: bank_ptr=2 save=0 restore=0
# [988000] C177: bank_ptr=2 save=0 restore=0
# [993000] C178: bank_ptr=2 save=0 restore=0
# [998000] C179: bank_ptr=2 save=0 restore=0
# [1003000] C180: bank_ptr=2 save=0 restore=0
# [1008000] C181: bank_ptr=2 save=0 restore=0
# [1013000] C182: bank_ptr=2 save=0 restore=0
# [1018000] C183: bank_ptr=2 save=0 restore=0
# [1023000] C184: bank_ptr=2 save=0 restore=0
# [1028000] C185: bank_ptr=2 save=0 restore=0
# [1033000] C186: bank_ptr=2 save=0 restore=0
# [1038000] C187: bank_ptr=2 save=0 restore=0
# [1043000] C188: bank_ptr=2 save=0 restore=0
# [1048000] C189: bank_ptr=2 save=0 restore=0
# [1053000] C190: bank_ptr=2 save=0 restore=0
# [1058000] C191: bank_ptr=2 save=0 restore=0
# [1063000] C192: bank_ptr=2 save=0 restore=0
# [1068000] C193: bank_ptr=2 save=0 restore=0
# [1073000] C194: bank_ptr=2 save=0 restore=0
# [1078000] C195: bank_ptr=2 save=0 restore=0
# [1083000] C196: bank_ptr=2 save=0 restore=0
# [1088000] C197: bank_ptr=2 save=0 restore=0
# [1093000] C198: bank_ptr=2 save=0 restore=0
# [1098000] C199: bank_ptr=2 save=0 restore=0
# [1103000] C200: bank_ptr=2 save=0 restore=0
# [1108000] C201: bank_ptr=2 save=0 restore=0
# [1113000] C202: bank_ptr=2 save=0 restore=0
# [1118000] C203: bank_ptr=2 save=0 restore=0
# [1123000] C204: bank_ptr=2 save=0 restore=0
# [1128000] C205: bank_ptr=2 save=0 restore=0
# [1133000] C206: bank_ptr=2 save=0 restore=0
# [1138000] C207: bank_ptr=2 save=0 restore=0
# [1143000] C208: bank_ptr=2 save=0 restore=0
# [1148000] C209: bank_ptr=2 save=0 restore=0
# [1153000] C210: bank_ptr=2 save=0 restore=0
# [1158000] C211: bank_ptr=2 save=0 restore=0
# [1163000] C212: bank_ptr=2 save=0 restore=0
# [1168000] C213: bank_ptr=2 save=0 restore=0
# [1173000] C214: bank_ptr=2 save=0 restore=0
# [1178000] C215: bank_ptr=2 save=0 restore=0
# [1183000] C216: bank_ptr=2 save=0 restore=0
# [1188000] C217: bank_ptr=2 save=0 restore=0
# [1193000] C218: bank_ptr=2 save=0 restore=0
# [1198000] C219: bank_ptr=2 save=0 restore=0
# [1203000] C220: bank_ptr=2 save=0 restore=0
# [1208000] C221: bank_ptr=2 save=0 restore=0
# [1213000] C222: bank_ptr=2 save=0 restore=0
# [1218000] C223: bank_ptr=2 save=0 restore=0
# [1223000] C224: bank_ptr=2 save=0 restore=0
# [1228000] C225: bank_ptr=2 save=0 restore=0
# [1233000] C226: bank_ptr=2 save=0 restore=0
# [1238000] C227: bank_ptr=2 save=0 restore=0
# [1243000] C228: bank_ptr=2 save=0 restore=0
# [1248000] C229: bank_ptr=2 save=0 restore=0
# [1253000] C230: bank_ptr=2 save=0 restore=0
# [1258000] C231: *** INTR TAKEN *** bank_ptr=3
# [1258000] C231: PC=0000021c INSTR=eadff06f IFID={pc=00000000 instr=00000013} IDEX={pc=00000000 br=0 jmp=0} EX={bt=0 jt=0} FWD={A=0 B=0} FLUSH={if=0 id=0}
# [1258000] C231: bank_ptr=3 save=1 restore=0
# [1263000] C232: bank_ptr=3 save=0 restore=0
# [1268000] C233: bank_ptr=3 save=0 restore=0
# [1273000] C234: bank_ptr=3 save=0 restore=0
# [1278000] C235: bank_ptr=3 save=0 restore=0
# [1283000] C236: bank_ptr=3 save=0 restore=0
# [1288000] C237: bank_ptr=3 save=0 restore=0
# [1293000] C238: RAM_WR addr=00000124 data=000000ec (mem[73])
# [1293000] C238: CPU_WR busaddr=00000124 wdata=000000ec ram_we=1
# [1293000] C238: bank_ptr=3 save=0 restore=0
# [1298000] C239: bank_ptr=3 save=0 restore=0
# [1303000] C240: bank_ptr=3 save=0 restore=0
# [1308000] C241: RAM_WR addr=00000104 data=dead0007 (mem[65])
# [1308000] C241: CPU_WR busaddr=00000104 wdata=dead0007 ram_we=1
# [1308000] C241: bank_ptr=3 save=0 restore=0
# [1313000] C242: bank_ptr=3 save=0 restore=0
# [1318000] C243: RAM_WR addr=00000110 data=00000001 (mem[68])
# [1318000] C243: CPU_WR busaddr=00000110 wdata=00000001 ram_we=1
# [1318000] C243: bank_ptr=3 save=0 restore=0
# [1323000] C244: bank_ptr=3 save=0 restore=0
# [1328000] C245: bank_ptr=3 save=0 restore=0
# [1333000] C246: CPU_WR busaddr=10002000 wdata=00000004 ram_we=0
# [1333000] C246: bank_ptr=3 save=0 restore=0
# [1338000] C247: bank_ptr=3 save=0 restore=0
# [1343000] C248: bank_ptr=3 save=0 restore=0
# [1348000] C249: bank_ptr=3 save=0 restore=0
# [1353000] C250: bank_ptr=3 save=0 restore=0
# [1358000] C251: bank_ptr=3 save=0 restore=0
# [1363000] C252: bank_ptr=3 save=0 restore=0
# [1368000] C253: bank_ptr=3 save=0 restore=0
# [1373000] C254: bank_ptr=3 save=0 restore=0
# [1378000] C255: bank_ptr=3 save=0 restore=0
# [1383000] C256: bank_ptr=3 save=0 restore=0
# [1388000] C257: bank_ptr=3 save=0 restore=0
# [1393000] C258: bank_ptr=3 save=0 restore=0
# [1398000] C259: bank_ptr=3 save=0 restore=0
# [1403000] C260: bank_ptr=3 save=0 restore=0
# [1408000] C261: bank_ptr=3 save=0 restore=0
# [1413000] C262: bank_ptr=3 save=0 restore=0
# [1418000] C263: bank_ptr=3 save=0 restore=0
# [1423000] C264: bank_ptr=3 save=0 restore=0
# [1428000] C265: bank_ptr=3 save=0 restore=0
# [1433000] C266: bank_ptr=3 save=0 restore=0
# [1438000] C267: bank_ptr=3 save=0 restore=0
# [1443000] C268: bank_ptr=3 save=0 restore=0
# [1448000] C269: bank_ptr=3 save=0 restore=0
# [1453000] C270: bank_ptr=3 save=0 restore=0
# [1458000] C271: bank_ptr=3 save=0 restore=0
# [1463000] C272: bank_ptr=3 save=0 restore=0
# [1468000] C273: bank_ptr=3 save=0 restore=0
# [1473000] C274: bank_ptr=3 save=0 restore=0
# [1478000] C275: bank_ptr=3 save=0 restore=0
# [1483000] C276: bank_ptr=3 save=0 restore=0
# [1488000] C277: bank_ptr=3 save=0 restore=0
# [1493000] C278: bank_ptr=3 save=0 restore=0
# [1498000] C279: bank_ptr=3 save=0 restore=0
# [1503000] C280: bank_ptr=3 save=0 restore=0
# [1508000] C281: bank_ptr=3 save=0 restore=0
# [1513000] C282: bank_ptr=3 save=0 restore=0
# [1518000] C283: bank_ptr=3 save=0 restore=0
# [1523000] C284: bank_ptr=3 save=0 restore=0
# [1528000] C285: bank_ptr=3 save=0 restore=0
# [1533000] C286: bank_ptr=3 save=0 restore=0
# [1538000] C287: bank_ptr=3 save=0 restore=0
# [1543000] C288: bank_ptr=3 save=0 restore=0
# [1548000] C289: bank_ptr=3 save=0 restore=0
# [1553000] C290: bank_ptr=3 save=0 restore=0
# [1558000] C291: bank_ptr=3 save=0 restore=0
# [1563000] C292: bank_ptr=3 save=0 restore=0
# [1568000] C293: bank_ptr=3 save=0 restore=0
# [1573000] C294: bank_ptr=3 save=0 restore=0
# [1578000] C295: bank_ptr=3 save=0 restore=0
# [1583000] C296: bank_ptr=3 save=0 restore=0
# [1588000] C297: bank_ptr=3 save=0 restore=0
# [1593000] C298: bank_ptr=3 save=0 restore=0
# [1598000] C299: bank_ptr=3 save=0 restore=0
# [TB] t=1600000: GPIO rise → preempt Timer ISR
# [1603000] C300: bank_ptr=3 save=0 restore=0
# [1608000] C301: bank_ptr=3 save=0 restore=0
# [1613000] C302: bank_ptr=3 save=0 restore=0
# [1618000] C303: bank_ptr=3 save=0 restore=0
# [1623000] C304: *** INTR TAKEN *** bank_ptr=4
# [1623000] C304: PC=0000022c INSTR=ee5ff06f IFID={pc=00000000 instr=00000013} IDEX={pc=00000000 br=0 jmp=0} EX={bt=0 jt=0} FWD={A=0 B=0} FLUSH={if=0 id=0}
# [1623000] C304: bank_ptr=4 save=1 restore=0
# [1628000] C305: bank_ptr=4 save=0 restore=0
# [1633000] C306: bank_ptr=4 save=0 restore=0
# [1638000] C307: bank_ptr=4 save=0 restore=0
# [1643000] C308: bank_ptr=4 save=0 restore=0
# [1648000] C309: bank_ptr=4 save=0 restore=0
# [1653000] C310: bank_ptr=4 save=0 restore=0
# [1658000] C311: RAM_WR addr=00000128 data=00000135 (mem[74])
# [1658000] C311: CPU_WR busaddr=00000128 wdata=00000135 ram_we=1
# [1658000] C311: bank_ptr=4 save=0 restore=0
# [1663000] C312: bank_ptr=4 save=0 restore=0
# [1668000] C313: bank_ptr=4 save=0 restore=0
# [1673000] C314: RAM_WR addr=00000108 data=beef000b (mem[66])
# [1673000] C314: CPU_WR busaddr=00000108 wdata=beef000b ram_we=1
# [1673000] C314: bank_ptr=4 save=0 restore=0
# [1678000] C315: bank_ptr=4 save=0 restore=0
# [1683000] C316: bank_ptr=4 save=0 restore=0
# [1688000] C317: *** MRET *** bank_ptr=4 restore=0
# [1688000] C317: CPU_WR busaddr=10001014 wdata=00000001 ram_we=0
# [1688000] C317: PC=00000138 INSTR=00000000 IFID={pc=00000134 instr=00000000} IDEX={pc=00000130 br=0 jmp=1} EX={bt=0 jt=1} FWD={A=0 B=0} FLUSH={if=1 id=1}
# [1688000] C317: bank_ptr=4 save=0 restore=0
# [1693000] C318: bank_ptr=3 save=0 restore=1
# [1698000] C319: bank_ptr=3 save=0 restore=0
# [1703000] C320: bank_ptr=3 save=0 restore=0
